<?xml version="1.0" encoding="UTF-8" standalone="no"?>
<svg
   inkscape:version="1.1 (c68e22c387, 2021-05-23)"
   sodipodi:docname="moveUpDown.svg"
   id="svg4"
   viewBox="0 0 24 24"
   height="24"
   width="24"
   version="1.1"
   xmlns:inkscape="http://www.inkscape.org/namespaces/inkscape"
   xmlns:sodipodi="http://sodipodi.sourceforge.net/DTD/sodipodi-0.dtd"
   xmlns="http://www.w3.org/2000/svg"
   xmlns:svg="http://www.w3.org/2000/svg"
   xmlns:rdf="http://www.w3.org/1999/02/22-rdf-syntax-ns#"
   xmlns:cc="http://creativecommons.org/ns#"
   xmlns:dc="http://purl.org/dc/elements/1.1/">
  <metadata
     id="metadata10">
    <rdf:RDF>
      <cc:Work
         rdf:about="">
        <dc:format>image/svg+xml</dc:format>
        <dc:type
           rdf:resource="http://purl.org/dc/dcmitype/StillImage" />
      </cc:Work>
    </rdf:RDF>
  </metadata>
  <defs
     id="defs8">
    <inkscape:path-effect
       effect="fill_between_many"
       method="originald"
       linkedpaths="#path2304,0,1|#path2-9,0,1"
       id="path-effect2541" />
  </defs>
  <sodipodi:namedview
     inkscape:current-layer="svg4"
     inkscape:window-maximized="0"
     inkscape:window-y="0"
     inkscape:window-x="571"
     inkscape:cy="8.1185701"
     inkscape:cx="7.3025283"
     inkscape:zoom="47.791667"
     showgrid="false"
     id="namedview6"
     inkscape:window-height="1561"
     inkscape:window-width="2637"
     inkscape:pageshadow="2"
     inkscape:pageopacity="0"
     guidetolerance="10"
     gridtolerance="10"
     objecttolerance="10"
     borderopacity="1"
     bordercolor="#666666"
     pagecolor="#ffffff"
     inkscape:pagecheckerboard="0" />
  <path
     style="fill:#838686;fill-opacity:1;stroke-width:0.555882"
     id="path2-5"
     d="m 23.81736,13.795161 v -3.352569 c 0,-0.231448 0.160632,-0.5030489 -1.468283,-0.4968419 L 1.9371041,10.023523 c -1.62891414,0.0061 -1.71514057,0.187625 -1.71514057,0.419072 v 3.35257 c 0,0.231445 -0.0989237,0.3413 1.52999777,0.3413 H 22.10222 c 1.628922,0 1.71514,-0.109849 1.71514,-0.3413"
     sodipodi:nodetypes="csssssssc" />
  <path
     sodipodi:type="star"
     style="fill:#ffffff"
     id="path204"
     inkscape:flatsided="false"
     sodipodi:sides="5"
     sodipodi:cx="9.7925024"
     sodipodi:cy="18.936356"
     sodipodi:r1="1.0462075"
     sodipodi:r2="0.52310371"
     sodipodi:arg1="2.8577985"
     sodipodi:arg2="3.4861171"
     inkscape:rounded="0"
     inkscape:randomized="0"
     d="m 8.7881432,19.229294 0.5119951,-0.469616 -0.096601,-0.688002 0.6048465,0.341817 0.6244769,-0.304477 -0.138179,0.680871 0.482549,0.499824 -0.690246,0.07898 -0.3262459,0.613386 -0.2884162,-0.632056 z"
     inkscape:transform-center-x="0.0098154217"
     inkscape:transform-center-y="0.09052285" />
  <g
     id="g4425">
    <path
       style="fill:#838686;fill-opacity:1;stroke-width:0.229189"
       id="path2-9"
       d="m 13.086202,15.115127 h -1.849021 c -0.127648,0 -0.277442,-0.04951 -0.274019,0.452549 l 0.04289,6.291311 c 0.0034,0.502058 0.103479,0.528635 0.231127,0.528635 h 1.84902 c 0.127648,0 0.188236,0.03049 0.188236,-0.471571 v -6.272289 c 0,-0.502061 -0.06059,-0.528635 -0.188236,-0.528635"
       sodipodi:nodetypes="csssssssc" />
    <path
       style="fill:#838686;fill-opacity:1;stroke-width:0.0288277"
       d="m 7.5723233,17.590595 c 3.1254197,-0.0263 6.0505957,0.0064 9.0345347,-0.01352 -1.609474,2.379211 -3.013245,4.327721 -4.517736,6.434156 C 10.58252,21.871958 9.0624674,19.740729 7.5723233,17.590595 Z"
       id="path2304-2"
       sodipodi:nodetypes="cccc" />
  </g>
  <g
     id="g4425-9"
     transform="matrix(1,0,0,-1,0.01502997,24.092585)">
    <path
       style="fill:#838686;fill-opacity:1;stroke-width:0.229189"
       id="path2-9-9"
       d="m 13.086202,15.115127 h -1.849021 c -0.127648,0 -0.277442,-0.04951 -0.274019,0.452549 l 0.04289,6.291311 c 0.0034,0.502058 0.103479,0.528635 0.231127,0.528635 h 1.84902 c 0.127648,0 0.188236,0.03049 0.188236,-0.471571 v -6.272289 c 0,-0.502061 -0.06059,-0.528635 -0.188236,-0.528635"
       sodipodi:nodetypes="csssssssc" />
    <path
       style="fill:#838686;fill-opacity:1;stroke-width:0.0288277"
       d="m 7.5723233,17.590595 c 3.1254197,-0.0263 6.0505957,0.0064 9.0345347,-0.01352 -1.609474,2.379211 -3.013245,4.327721 -4.517736,6.434156 C 10.58252,21.871958 9.0624674,19.740729 7.5723233,17.590595 Z"
       id="path2304-2-4"
       sodipodi:nodetypes="cccc" />
  </g>
</svg>
