<?xml version="1.0" encoding="UTF-8" standalone="no"?>
<!-- Created with Inkscape (http://www.inkscape.org/) -->

<svg
   id="svg8846"
   version="1.1"
   inkscape:version="1.2.2 (b0a8486541, 2022-12-01)"
   width="1772.734"
   height="1632"
   xml:space="preserve"
   sodipodi:docname="TruncatedSphere_xz.svg"
   xmlns:inkscape="http://www.inkscape.org/namespaces/inkscape"
   xmlns:sodipodi="http://sodipodi.sourceforge.net/DTD/sodipodi-0.dtd"
   xmlns="http://www.w3.org/2000/svg"
   xmlns:svg="http://www.w3.org/2000/svg"
   xmlns:rdf="http://www.w3.org/1999/02/22-rdf-syntax-ns#"
   xmlns:cc="http://creativecommons.org/ns#"
   xmlns:dc="http://purl.org/dc/elements/1.1/"><metadata
     id="metadata8852"><rdf:RDF><cc:Work
         rdf:about=""><dc:format>image/svg+xml</dc:format><dc:type
           rdf:resource="http://purl.org/dc/dcmitype/StillImage" /></cc:Work></rdf:RDF></metadata><defs
     id="defs8850"><inkscape:path-effect
       effect="spiro"
       id="path-effect9778"
       is_visible="true"
       lpeversion="0" /><marker
       inkscape:stockid="Arrow1Lend"
       orient="auto"
       refY="0"
       refX="0"
       id="Arrow1Lend"
       style="overflow:visible"><path
         id="path3826"
         d="M 0,0 5,-5 -12.5,0 5,5 Z"
         style="fill-rule:evenodd;stroke:#000000;stroke-width:1pt;marker-start:none"
         transform="matrix(-0.8,0,0,-0.8,-10,0)"
         inkscape:connector-curvature="0" /></marker><marker
       inkscape:stockid="Arrow1Lstart"
       orient="auto"
       refY="0"
       refX="0"
       id="Arrow1Lstart"
       style="overflow:visible"><path
         id="path3823"
         d="M 0,0 5,-5 -12.5,0 5,5 Z"
         style="fill-rule:evenodd;stroke:#000000;stroke-width:1pt;marker-start:none"
         transform="matrix(0.8,0,0,0.8,10,0)"
         inkscape:connector-curvature="0" /></marker><clipPath
       clipPathUnits="userSpaceOnUse"
       id="clipPath8878"><path
         d="m -0.03,-0.03 h 2384 v 3370.45 h -2384"
         id="path8880"
         inkscape:connector-curvature="0" /></clipPath><marker
       inkscape:stockid="Arrow1Lstart"
       orient="auto"
       refY="0"
       refX="0"
       id="Arrow1Lstart-9"
       style="overflow:visible"><path
         id="path3823-3"
         d="M 0,0 5,-5 -12.5,0 5,5 Z"
         style="fill-rule:evenodd;stroke:#000000;stroke-width:1pt;marker-start:none"
         transform="matrix(0.8,0,0,0.8,10,0)"
         inkscape:connector-curvature="0" /></marker><marker
       inkscape:stockid="Arrow1Lend"
       orient="auto"
       refY="0"
       refX="0"
       id="Arrow1Lend-6"
       style="overflow:visible"><path
         id="path3826-8"
         d="M 0,0 5,-5 -12.5,0 5,5 Z"
         style="fill-rule:evenodd;stroke:#000000;stroke-width:1pt;marker-start:none"
         transform="matrix(-0.8,0,0,-0.8,-10,0)"
         inkscape:connector-curvature="0" /></marker><marker
       inkscape:stockid="Arrow1Lstart"
       orient="auto"
       refY="0"
       refX="0"
       id="Arrow1Lstart-9-5"
       style="overflow:visible"><path
         id="path3823-3-6"
         d="M 0,0 5,-5 -12.5,0 5,5 Z"
         style="fill-rule:evenodd;stroke:#000000;stroke-width:1pt;marker-start:none"
         transform="matrix(0.8,0,0,0.8,10,0)"
         inkscape:connector-curvature="0" /></marker><marker
       inkscape:stockid="Arrow1Lend"
       orient="auto"
       refY="0"
       refX="0"
       id="Arrow1Lend-6-2"
       style="overflow:visible"><path
         id="path3826-8-9"
         d="M 0,0 5,-5 -12.5,0 5,5 Z"
         style="fill-rule:evenodd;stroke:#000000;stroke-width:1pt;marker-start:none"
         transform="matrix(-0.8,0,0,-0.8,-10,0)"
         inkscape:connector-curvature="0" /></marker></defs><sodipodi:namedview
     pagecolor="#ffffff"
     bordercolor="#666666"
     borderopacity="1"
     objecttolerance="10"
     gridtolerance="10"
     guidetolerance="10"
     inkscape:pageopacity="0"
     inkscape:pageshadow="2"
     inkscape:window-width="2560"
     inkscape:window-height="1375"
     id="namedview8848"
     showgrid="true"
     inkscape:zoom="0.46"
     inkscape:cx="1182.6087"
     inkscape:cy="808.69565"
     inkscape:window-x="0"
     inkscape:window-y="0"
     inkscape:window-maximized="1"
     inkscape:current-layer="g8854"
     units="px"
     fit-margin-top="15"
     fit-margin-left="15"
     fit-margin-bottom="15"
     fit-margin-right="15"
     inkscape:snap-global="true"
     inkscape:showpageshadow="2"
     inkscape:pagecheckerboard="0"
     inkscape:deskcolor="#d1d1d1"><inkscape:grid
       type="xygrid"
       id="grid9774"
       empspacing="5"
       visible="true"
       enabled="true"
       snapvisiblegridlinesonly="true"
       originx="0"
       originy="0" /></sodipodi:namedview><g
     id="g8854"
     inkscape:groupmode="layer"
     inkscape:label="Sphere_Blatt__2"
     transform="matrix(1.25,0,0,-1.25,-205.85011,2757.0144)"><path
   d="M 251.57354,1482.61 H 171.26246"
   style="fill:none;stroke:#000000;stroke-width:3.09738;stroke-linecap:butt;stroke-linejoin:miter;stroke-miterlimit:2;stroke-dasharray:none;stroke-opacity:1"
   id="path8856"
   inkscape:connector-curvature="0" /><path
   d="M 1550.7596,2065.9639 H 174.29889"
   style="fill:none;stroke:#000000;stroke-width:4.44804;stroke-linecap:butt;stroke-linejoin:miter;stroke-miterlimit:2;stroke-dasharray:none;stroke-opacity:1"
   id="path8858"
   inkscape:connector-curvature="0" /><path
   d="M 1549.2996,905.10197 H 856.58291"
   style="fill:none;stroke:#000000;stroke-width:3.15548;stroke-linecap:butt;stroke-linejoin:miter;stroke-miterlimit:2;stroke-dasharray:none;stroke-opacity:1"
   id="path8858-3"
   inkscape:connector-curvature="0" /><path
   d="m 223.36295,1486.3474 v 565.5051"
   style="fill:none;stroke:#000000;stroke-width:3.21829;stroke-linecap:butt;stroke-linejoin:miter;stroke-miterlimit:2;stroke-dasharray:none;stroke-opacity:1;marker-start:url(#Arrow1Lstart);marker-end:url(#Arrow1Lend)"
   id="path8890"
   inkscape:connector-curvature="0" /><text
   xml:space="preserve"
   style="font-style:normal;font-variant:normal;font-weight:normal;font-stretch:normal;font-size:11.6152px;line-height:0%;font-family:monospace;-inkscape-font-specification:Monospace;text-align:start;letter-spacing:0px;word-spacing:0px;writing-mode:lr-tb;text-anchor:start;fill:#000000;fill-opacity:1;stroke:none;stroke-width:0.96793"
   x="167.27719"
   y="-1732.8174"
   id="text9770"
   transform="scale(0.99907267,-1.0009282)"><tspan
     sodipodi:role="line"
     id="tspan9772"
     x="167.27719"
     y="-1732.8174"
     style="font-size:77.4344px;line-height:1.25;font-family:monospace;stroke-width:0.96793">R</tspan></text>


<path
   style="fill:none;stroke:#000000;stroke-width:4.8;stroke-linecap:butt;stroke-linejoin:miter;stroke-miterlimit:4;stroke-dasharray:none;stroke-opacity:1;marker-start:url(#Arrow1Lstart);marker-end:url(#Arrow1Lend)"
   d="M 844.18054,2189.0652 V 1486.1154 H 1573.36"
   id="path9776"
   inkscape:path-effect="#path-effect9778"
   inkscape:original-d="m 844.18054,2189.0652 c 0,0 0,0 0,-702.9498 729.17946,0 729.17946,0 729.17946,0"
   inkscape:connector-curvature="0" /><text
   xml:space="preserve"
   style="font-style:normal;font-variant:normal;font-weight:normal;font-stretch:normal;line-height:0%;font-family:monospace;-inkscape-font-specification:Monospace;text-align:start;letter-spacing:0px;word-spacing:0px;writing-mode:lr-tb;text-anchor:start;fill:#000000;fill-opacity:1;stroke:none"
   x="879.95203"
   y="-2141.9607"
   id="text10148"
   transform="scale(1,-1)"><tspan
     sodipodi:role="line"
     id="tspan10150"
     x="879.95203"
     y="-2141.9607"
     style="font-size:80px;line-height:1.25;font-family:monospace">z</tspan></text>


<text
   xml:space="preserve"
   style="font-style:normal;font-variant:normal;font-weight:normal;font-stretch:normal;font-size:11.6152px;line-height:0%;font-family:monospace;-inkscape-font-specification:Monospace;text-align:start;letter-spacing:0px;word-spacing:0px;writing-mode:lr-tb;text-anchor:start;fill:#000000;fill-opacity:1;stroke:none;stroke-width:0.96793"
   x="1474.3708"
   y="-1410.6906"
   id="text10152"
   transform="scale(0.99907267,-1.0009282)"><tspan
     sodipodi:role="line"
     id="tspan10154"
     x="1474.3708"
     y="-1410.6906"
     style="font-size:77.4344px;line-height:1.25;font-family:monospace;stroke-width:0.96793">x</tspan></text>


<path
   sodipodi:type="arc"
   style="fill:none;fill-opacity:0.25;fill-rule:nonzero;stroke:#000000;stroke-width:11.6151;stroke-linecap:round;stroke-linejoin:miter;stroke-miterlimit:4;stroke-dasharray:11.6151, 34.8454;stroke-dashoffset:0;stroke-opacity:1"
   id="path10183"
   sodipodi:cx="838.85767"
   sodipodi:cy="-1487.1304"
   sodipodi:rx="592.13165"
   sodipodi:ry="573.56836"
   d="M 1412.6687,-1345.5588 A 592.13165,573.56836 0 0 1 840.91544,-913.56548 592.13165,573.56836 0 0 1 266.07634,-1341.6991"
   transform="scale(1,-1)"
   sodipodi:start="0.24940344"
   sodipodi:end="2.8852388"
   sodipodi:arc-type="arc"
   sodipodi:open="true" /><path
   sodipodi:type="arc"
   style="fill:none;fill-opacity:0.25;fill-rule:nonzero;stroke:#000000;stroke-width:11.6152;stroke-linecap:round;stroke-linejoin:miter;stroke-miterlimit:4;stroke-dasharray:11.6152, 34.8454;stroke-dashoffset:0;stroke-opacity:1"
   id="path10183-5"
   sodipodi:cx="841.58093"
   sodipodi:cy="1487.9424"
   sodipodi:rx="592.13171"
   sodipodi:ry="573.5683"
   d="M 1269.7761,1884.1058 A 592.13171,573.5683 0 0 1 852.23081,2061.4179 592.13171,573.5683 0 0 1 428.37214,1898.7669"
   sodipodi:start="0.76245611"
   sodipodi:end="2.3431633"
   sodipodi:arc-type="arc"
   sodipodi:open="true" /><path
   sodipodi:type="arc"
   style="fill:none;fill-opacity:0.25;fill-rule:nonzero;stroke:#000000;stroke-width:11.6152;stroke-linecap:round;stroke-linejoin:miter;stroke-miterlimit:4;stroke-dasharray:none;stroke-dashoffset:0;stroke-opacity:1"
   id="path10183-6"
   sodipodi:cx="838.85773"
   sodipodi:cy="-1488.1438"
   sodipodi:rx="592.13171"
   sodipodi:ry="573.5683"
   d="m 1259.8367,-1891.4986 a 592.13171,573.5683 0 0 1 136.1088,597.7451"
   transform="scale(1,-1)"
   sodipodi:start="5.5032442"
   sodipodi:end="0.34576224"
   sodipodi:arc-type="arc"
   sodipodi:open="true" /><path
   sodipodi:type="arc"
   style="fill:none;fill-opacity:0.25;fill-rule:nonzero;stroke:#000000;stroke-width:11.6152;stroke-linecap:round;stroke-linejoin:miter;stroke-miterlimit:4;stroke-dasharray:none;stroke-dashoffset:0;stroke-opacity:1"
   id="path10183-6-7"
   sodipodi:cx="-838.74298"
   sodipodi:cy="-1486.9098"
   sodipodi:rx="592.13171"
   sodipodi:ry="573.5683"
   d="m -426.91232,-1899.0307 a 592.13171,573.5683 0 0 1 145.58816,605.6188"
   transform="scale(-1)"
   sodipodi:start="5.4815117"
   sodipodi:end="0.34410905"
   sodipodi:arc-type="arc"
   sodipodi:open="true" /><path
   style="fill:#808080;fill-opacity:0.25;stroke:#000000;stroke-width:11.6419;stroke-linecap:round;stroke-linejoin:miter;stroke-miterlimit:4;stroke-dasharray:none;stroke-dashoffset:0;stroke-opacity:1"
   d="m 426.46928,1899.3027 832.48052,-7.7499"
   id="path862"
   inkscape:connector-curvature="0" /><path
   style="fill:#808080;fill-opacity:0.25;stroke:#000000;stroke-width:11.6025;stroke-linecap:round;stroke-linejoin:miter;stroke-miterlimit:4;stroke-dasharray:none;stroke-dashoffset:0;stroke-opacity:1"
   d="m 284.15656,1288.9075 1111.77424,-0.2637"
   id="path862-3"
   inkscape:connector-curvature="0"
   sodipodi:nodetypes="cc" /><path
   d="m 1258.7907,1906.583 v 153.6573"
   style="fill:none;stroke:#000000;stroke-width:2.31759938;stroke-linecap:butt;stroke-linejoin:miter;stroke-miterlimit:2;stroke-dasharray:none;stroke-opacity:1;marker-start:url(#Arrow1Lstart-9);marker-end:url(#Arrow1Lend-6)"
   id="path8890-0"
   inkscape:connector-curvature="0" /><path
   d="M 1401.639,912.85866 V 1277.5134"
   style="fill:none;stroke:#000000;stroke-width:2.58432;stroke-linecap:butt;stroke-linejoin:miter;stroke-miterlimit:2;stroke-dasharray:none;stroke-opacity:1;marker-start:url(#Arrow1Lstart-9-5);marker-end:url(#Arrow1Lend-6-2)"
   id="path8890-0-1"
   inkscape:connector-curvature="0" /><text
   xml:space="preserve"
   style="font-style:normal;font-variant:normal;font-weight:normal;font-stretch:normal;font-size:11.6152px;line-height:0%;font-family:monospace;-inkscape-font-specification:Monospace;text-align:start;letter-spacing:0px;word-spacing:0px;writing-mode:lr-tb;text-anchor:start;fill:#000000;fill-opacity:1;stroke:none;stroke-width:0.96793"
   x="1276.7455"
   y="-1958.1785"
   id="text9770-3"
   transform="scale(0.99907267,-1.0009282)"><tspan
     sodipodi:role="line"
     id="tspan9772-6"
     x="1276.7455"
     y="-1958.1785"
     style="font-size:77.4344px;line-height:1.25;font-family:monospace;stroke-width:0.96793">t</tspan></text><text
   xml:space="preserve"
   style="font-style:normal;font-variant:normal;font-weight:normal;font-stretch:normal;font-size:11.6152px;line-height:0%;font-family:monospace;-inkscape-font-specification:Monospace;text-align:start;letter-spacing:0px;word-spacing:0px;writing-mode:lr-tb;text-anchor:start;fill:#000000;fill-opacity:1;stroke:none;stroke-width:0.96793"
   x="1421.8271"
   y="-1065.6019"
   id="text9770-3-2"
   transform="scale(0.99907267,-1.0009282)"><tspan
     sodipodi:role="line"
     id="tspan9772-6-7"
     x="1421.8271"
     y="-1065.6019"
     style="font-size:77.4344px;line-height:1.25;font-family:monospace;stroke-width:0.96793">b</tspan></text>

<path
   style="fill:#808080;fill-opacity:0.25;stroke-width:17.9642;stroke-linecap:round"
   d="m 279.72435,1311.1613 c -11.14736,35.2336 -18.59272,70.0202 -23.4258,109.451 -2.54782,20.7864 -3.56912,77.8347 -1.81367,101.3098 9.99257,133.6288 65.45178,257.1325 159.24412,354.6253 l 16.26065,16.9023 12.48669,-0.6218 c 6.86769,-0.342 91.42043,-1.1794 187.89499,-1.8609 96.47456,-0.6815 183.03409,-1.5566 192.35451,-1.9446 l 16.94622,-0.7055 v -206.7157 -206.7157 h 292.54534 c 277.8239,0 292.5451,-0.1063 292.5398,-2.1107 0,-1.1609 -0.5618,-11.0657 -1.2419,-22.0108 -3.0499,-49.0926 -11.3086,-93.2558 -26.2191,-140.2058 l -6.0326,-18.9956 H 838.59433 285.92506 Z"
   id="path1022" /><path
   style="fill:#808080;fill-opacity:0.25;stroke-width:17.8547;stroke-linecap:round"
   d="m 845.6181,1687.2775 v 201.3495 l 29.43292,-0.016 c 16.1881,-0.01 108.61238,-0.8047 205.38718,-1.7685 l 175.9543,-1.7523 8.215,-8.0607 c 21.1266,-20.7299 51.291,-58.3175 70.0508,-87.29 45.2397,-69.8678 75.0394,-150.6405 85.273,-231.135 2.3805,-18.7248 4.8158,-51.6417 4.8259,-65.2301 l 0.01,-7.4463 H 1135.1904 845.6181 Z"
   id="path1024" /></g></svg>
