<?xml version="1.0" encoding="UTF-8" standalone="no"?>
<svg
   xmlns:dc="http://purl.org/dc/elements/1.1/"
   xmlns:cc="http://creativecommons.org/ns#"
   xmlns:rdf="http://www.w3.org/1999/02/22-rdf-syntax-ns#"
   xmlns:svg="http://www.w3.org/2000/svg"
   xmlns="http://www.w3.org/2000/svg"
   viewBox="0 0 1881.8309 1670.3566"
   height="1670.3566"
   width="1881.8309"
   xml:space="preserve"
   id="svg2"
   version="1.1"><metadata
     id="metadata8"><rdf:RDF><cc:Work
         rdf:about=""><dc:format>image/svg+xml</dc:format><dc:type
           rdf:resource="http://purl.org/dc/dcmitype/StillImage" /></cc:Work></rdf:RDF></metadata><defs
     id="defs6" /><g
     transform="matrix(1.3333333,0,0,1.3333333,0,3.3758915e-5)"
     id="g10"><g
       id="g12"><g
         transform="scale(1,-1)"
         id="g14"><path
           id="path16"
           style="fill:none;stroke:#000000;stroke-width:3.20000005;stroke-linecap:butt;stroke-linejoin:miter;stroke-miterlimit:2;stroke-dasharray:none;stroke-opacity:1"
           d="M 685.469,-1250.281 H 74.535" /></g><g
         transform="scale(1,-1)"
         id="g18"><path
           id="path20"
           style="fill:none;stroke:#000000;stroke-width:3.20000005;stroke-linecap:butt;stroke-linejoin:miter;stroke-miterlimit:2;stroke-dasharray:none;stroke-opacity:1"
           d="M 691.859,-186.039 H 74.547" /></g><g
         transform="scale(1,-1)"
         id="g22"><path
           id="path24"
           style="fill:none;stroke:#000000;stroke-width:3.20000005;stroke-linecap:butt;stroke-linejoin:miter;stroke-miterlimit:2;stroke-dasharray:none;stroke-opacity:1"
           d="M 109.148,-1246.941 V -189.102" /></g><g
         transform="matrix(0,-1,-1,0,0,0)"
         id="g26"><path
           id="path28"
           style="fill:#000000;fill-opacity:1;fill-rule:evenodd;stroke:#000000;stroke-width:3.20000005;stroke-linecap:butt;stroke-linejoin:miter;stroke-miterlimit:4;stroke-dasharray:none;stroke-opacity:1"
           d="m -1214.945,-109.148 12.804,-12.801 -44.804,12.801 44.804,12.8 z" /></g><g
         transform="matrix(0,1,1,0,0,0)"
         id="g30"><path
           id="path32"
           style="fill:#000000;fill-opacity:1;fill-rule:evenodd;stroke:#000000;stroke-width:3.20000005;stroke-linecap:butt;stroke-linejoin:miter;stroke-miterlimit:4;stroke-dasharray:none;stroke-opacity:1"
           d="m 221.102,109.148 12.804,-12.8 -44.804,12.8 44.804,12.801 z" /></g><text
         id="text36"
         style="font-variant:normal;font-weight:normal;font-size:80px;font-family:'DejaVu Sans Mono';-inkscape-font-specification:DejaVuSansMono;writing-mode:lr-tb;fill:#000000;fill-opacity:1;fill-rule:nonzero;stroke:none"
         transform="translate(-5.9375,721.86313)"><tspan
           id="tspan34"
           y="0"
           x="0 48.16">2R</tspan></text>
<g
         transform="scale(1,-1)"
         id="g38"><path
           id="path40"
           style="fill:none;stroke:#000000;stroke-width:4.80000019;stroke-linecap:butt;stroke-linejoin:miter;stroke-miterlimit:4;stroke-dasharray:none;stroke-opacity:1"
           d="m 683.34,-8.734 v -719.215 h 719.297" /></g><g
         transform="matrix(0,1,1,0,0,0)"
         id="g42"><path
           id="path44"
           style="fill:#000000;fill-opacity:1;fill-rule:evenodd;stroke:#000000;stroke-width:4.80000019;stroke-linecap:butt;stroke-linejoin:miter;stroke-miterlimit:4;stroke-dasharray:none;stroke-opacity:1"
           d="M 56.738,683.34 75.934,664.141 8.738,683.34 75.934,702.539 Z" /></g><g
         transform="scale(-1,1)"
         id="g46"><path
           id="path48"
           style="fill:#000000;fill-opacity:1;fill-rule:evenodd;stroke:#000000;stroke-width:4.80000019;stroke-linecap:butt;stroke-linejoin:miter;stroke-miterlimit:4;stroke-dasharray:none;stroke-opacity:1"
           d="m -1354.637,727.953 19.199,-19.203 -67.199,19.203 67.199,19.199 z" /></g><text
         id="text54"
         style="font-variant:normal;font-weight:normal;font-size:80px;font-family:'DejaVu Sans Mono';-inkscape-font-specification:DejaVuSansMono;writing-mode:lr-tb;fill:#000000;fill-opacity:1;fill-rule:nonzero;stroke:none"
         transform="translate(730.06248,49.863251)"><tspan
           id="tspan50"
           y="0"
           x="0">y</tspan><tspan
           id="tspan52"
           y="767.99982"
           x="607.99988">x</tspan></text>
<path
         id="path56"
         style="fill:#808080;fill-opacity:0.25;fill-rule:nonzero;stroke:none"
         d="m 1214.406,718.457 c 0,291.82 -236.57,528.391 -528.398,528.391 -291.824,0 -528.395,-236.571 -528.395,-528.391 0,-291.824 236.571,-528.402 528.395,-528.402 291.828,0 528.398,236.578 528.398,528.402 z" /><g
         transform="scale(1,0.954545)"
         id="g58"><path
           id="path60"
           style="fill:none;stroke:#000000;stroke-width:12.29180908;stroke-linecap:butt;stroke-linejoin:miter;stroke-miterlimit:4;stroke-dasharray:none;stroke-opacity:1"
           d="m 1214.406,752.666 c 0,305.72 -236.57,553.556 -528.398,553.556 -291.824,0 -528.395,-247.836 -528.395,-553.556 0,-305.721 236.571,-553.557 528.395,-553.557 291.828,0 528.398,247.836 528.398,553.557 z" /></g><g
         id="g62"><path
           id="path64"
           style="fill:none;stroke:#000000;stroke-width:4.11089087;stroke-linecap:butt;stroke-linejoin:round;stroke-miterlimit:4;stroke-dasharray:4.110891, 12.332673;stroke-dashoffset:0;stroke-opacity:1"
           d="m 1038.367,709.395 c 0,191.683 -154.308,347.074 -344.66,347.074 -190.355,0 -344.664,-155.391 -344.664,-347.074 0,-191.684 154.309,-347.075 344.664,-347.075 190.352,0 344.66,155.391 344.66,347.075 z" /></g></g></g></svg>